[
  {
    "id": 0,
    "authorId": 34,
    "teamId": 0,
    "name": "next generation",
    "description": "Qui ex architecto qui.",
    "deadline": "2022-02-15T07:04:40.9743781+00:00",
    "createdAt": "2020-12-16T11:15:40.4826415+00:00"
  },
  {
    "id": 1,
    "authorId": 22,
    "teamId": 0,
    "name": "Data",
    "description": "Unde ullam voluptatem eligendi architecto.",
    "deadline": "2022-05-03T04:17:15.0718275+00:00",
    "createdAt": "2020-09-19T06:56:44.0511154+00:00"
  },
  {
    "id": 2,
    "authorId": 29,
    "teamId": 0,
    "name": "Liaison pricing structure Estates",
    "description": "Et sunt recusandae et quo dolores.",
    "deadline": "2022-02-18T18:19:37.3005625+00:00",
    "createdAt": "2021-07-05T08:51:26.6558871+00:00"
  },
  {
    "id": 3,
    "authorId": 25,
    "teamId": 0,
    "name": "Arkansas e-tailers PNG",
    "description": "Porro reprehenderit aliquid quo enim enim.",
    "deadline": "2022-03-09T19:41:39.9363081+00:00",
    "createdAt": "2020-12-13T04:23:25.6537877+00:00"
  },
  {
    "id": 4,
    "authorId": 31,
    "teamId": 0,
    "name": "high-level",
    "description": "Ipsam eligendi alias.",
    "deadline": "2022-02-05T09:38:00.2335132+00:00",
    "createdAt": "2021-06-30T17:40:45.577806+00:00"
  },
  {
    "id": 5,
    "authorId": 31,
    "teamId": 0,
    "name": "deliver",
    "description": "Explicabo necessitatibus consequatur.",
    "deadline": "2022-03-11T13:48:20.3139298+00:00",
    "createdAt": "2021-12-02T21:16:08.8784068+00:00"
  },
  {
    "id": 6,
    "authorId": 29,
    "teamId": 0,
    "name": "evolve",
    "description": "Fugiat ipsa illo eum similique.",
    "deadline": "2022-04-29T13:21:41.3058009+00:00",
    "createdAt": "2021-06-07T01:40:53.7346951+00:00"
  },
  {
    "id": 7,
    "authorId": 36,
    "teamId": 1,
    "name": "Cambridgeshire",
    "description": "Voluptatem iusto et veritatis nostrum accusantium quia quod vitae.",
    "deadline": "2022-02-12T08:09:41.7018882+00:00",
    "createdAt": "2021-05-06T21:56:00.0259979+00:00"
  },
  {
    "id": 8,
    "authorId": 36,
    "teamId": 1,
    "name": "Usability value-added North Carolina",
    "description": "Explicabo tempora ad quidem.",
    "deadline": "2022-02-12T23:54:55.1613679+00:00",
    "createdAt": "2020-11-27T11:21:56.0676365+00:00"
  },
  {
    "id": 9,
    "authorId": 36,
    "teamId": 1,
    "name": "supply-chains Moldova",
    "description": "Dicta odit rerum consectetur.",
    "deadline": "2022-04-18T00:49:47.060426+00:00",
    "createdAt": "2020-04-29T02:15:28.3580718+00:00"
  },
  {
    "id": 10,
    "authorId": 36,
    "teamId": 1,
    "name": "Auto Loan Account SMS New York",
    "description": "Aliquid consequatur earum atque qui assumenda quo eaque.",
    "deadline": "2022-02-10T04:59:21.3842112+00:00",
    "createdAt": "2021-07-30T09:53:29.8967838+00:00"
  },
  {
    "id": 11,
    "authorId": 36,
    "teamId": 1,
    "name": "enterprise distributed invoice",
    "description": "Eos voluptas veritatis.",
    "deadline": "2022-01-24T09:23:05.2357757+00:00",
    "createdAt": "2021-03-11T19:34:35.6561771+00:00"
  },
  {
    "id": 12,
    "authorId": 36,
    "teamId": 1,
    "name": "holistic",
    "description": "Ea molestiae id earum accusantium veritatis.",
    "deadline": "2022-01-18T06:58:02.2213203+00:00",
    "createdAt": "2020-12-08T22:35:03.7744955+00:00"
  },
  {
    "id": 13,
    "authorId": 36,
    "teamId": 1,
    "name": "seize Handmade Frozen Tuna Steel",
    "description": "Minima neque eius hic.",
    "deadline": "2022-04-05T13:50:28.5401845+00:00",
    "createdAt": "2020-07-06T06:28:15.9446402+00:00"
  },
  {
    "id": 14,
    "authorId": 36,
    "teamId": 1,
    "name": "interface",
    "description": "Sed sint et error facere corporis veniam temporibus quia.",
    "deadline": "2022-05-19T04:13:06.864157+00:00",
    "createdAt": "2021-05-29T05:07:17.2664444+00:00"
  },
  {
    "id": 15,
    "authorId": 36,
    "teamId": 1,
    "name": "Health, Shoes & Garden Licensed",
    "description": "Ad aut consectetur enim sit aut qui.",
    "deadline": "2022-02-14T05:07:51.141617+00:00",
    "createdAt": "2021-08-07T13:08:22.0403728+00:00"
  },
  {
    "id": 16,
    "authorId": 36,
    "teamId": 1,
    "name": "Electronics RAM Virgin Islands, U.S.",
    "description": "Ea suscipit nobis qui delectus fugit est rerum.",
    "deadline": "2022-05-24T17:23:51.6636316+00:00",
    "createdAt": "2021-06-28T18:11:29.0655561+00:00"
  },
  {
    "id": 17,
    "authorId": 36,
    "teamId": 1,
    "name": "ivory Expanded paradigms",
    "description": "Similique voluptas eos est aut.",
    "deadline": "2022-06-28T18:23:46.5988455+00:00",
    "createdAt": "2020-11-12T03:15:42.1670102+00:00"
  },
  {
    "id": 18,
    "authorId": 36,
    "teamId": 1,
    "name": "program morph",
    "description": "Odio quam incidunt deserunt est.",
    "deadline": "2022-02-21T18:44:00.0741402+00:00",
    "createdAt": "2021-08-22T07:06:47.4457044+00:00"
  },
  {
    "id": 19,
    "authorId": 36,
    "teamId": 1,
    "name": "functionalities",
    "description": "Qui non veniam sit.",
    "deadline": "2022-07-04T17:37:32.0197038+00:00",
    "createdAt": "2021-02-14T13:40:16.3102704+00:00"
  },
  {
    "id": 20,
    "authorId": 40,
    "teamId": 2,
    "name": "one-to-one hard drive",
    "description": "Eum explicabo et dolorem officiis repudiandae assumenda.",
    "deadline": "2022-04-29T09:57:24.8302666+00:00",
    "createdAt": "2020-07-06T04:57:55.3699326+00:00"
  },
  {
    "id": 21,
    "authorId": 67,
    "teamId": 3,
    "name": "transmit Tasty Plastic Fish SDR",
    "description": "Illo id aliquid.",
    "deadline": "2022-06-09T11:14:31.7624942+00:00",
    "createdAt": "2021-03-22T19:06:30.1982076+00:00"
  },
  {
    "id": 22,
    "authorId": 55,
    "teamId": 3,
    "name": "Research",
    "description": "Molestias sit consequuntur quo.",
    "deadline": "2022-01-31T01:32:43.2133508+00:00",
    "createdAt": "2021-05-12T23:55:23.1572378+00:00"
  },
  {
    "id": 23,
    "authorId": 65,
    "teamId": 3,
    "name": "Administrator Right-sized",
    "description": "Voluptatem exercitationem est magnam consectetur esse doloremque corrupti accusantium facilis.",
    "deadline": "2022-03-28T23:27:03.39995+00:00",
    "createdAt": "2021-05-17T14:08:07.100325+00:00"
  },
  {
    "id": 24,
    "authorId": 57,
    "teamId": 3,
    "name": "web-enabled Credit Card Account Credit Card Account",
    "description": "Corrupti est quidem.",
    "deadline": "2022-07-09T23:54:38.1260096+00:00",
    "createdAt": "2020-02-14T03:19:53.2958301+00:00"
  },
  {
    "id": 25,
    "authorId": 62,
    "teamId": 3,
    "name": "magenta Tajikistan",
    "description": "Omnis voluptas non quo doloremque.",
    "deadline": "2022-06-10T18:59:39.5868458+00:00",
    "createdAt": "2020-12-17T07:25:13.6808596+00:00"
  },
  {
    "id": 26,
    "authorId": 52,
    "teamId": 3,
    "name": "Berkshire Moldovan Leu system",
    "description": "Et commodi nam officia sed voluptas sed.",
    "deadline": "2022-05-09T01:42:48.8505969+00:00",
    "createdAt": "2021-12-05T19:45:45.0666102+00:00"
  },
  {
    "id": 27,
    "authorId": 68,
    "teamId": 4,
    "name": "Green innovative Arizona",
    "description": "Error illum facere id sint odit sunt.",
    "deadline": "2022-03-26T17:31:10.9419066+00:00",
    "createdAt": "2022-01-09T16:54:29.0813903+00:00"
  },
  {
    "id": 28,
    "authorId": 68,
    "teamId": 4,
    "name": "Bedfordshire azure Plastic",
    "description": "Quis ipsum recusandae autem aut nam assumenda deserunt omnis.",
    "deadline": "2022-04-10T15:35:03.7624527+00:00",
    "createdAt": "2021-03-13T09:06:42.8752691+00:00"
  },
  {
    "id": 29,
    "authorId": 68,
    "teamId": 4,
    "name": "Practical Wooden Salad",
    "description": "Enim possimus maxime deleniti perspiciatis iusto provident quis.",
    "deadline": "2022-02-03T12:07:52.6596367+00:00",
    "createdAt": "2020-06-22T06:31:00.2603507+00:00"
  },
  {
    "id": 30,
    "authorId": 68,
    "teamId": 4,
    "name": "deposit Engineer",
    "description": "Officiis facilis est itaque sunt.",
    "deadline": "2022-06-11T20:56:25.5306643+00:00",
    "createdAt": "2021-05-18T12:46:42.6139444+00:00"
  },
  {
    "id": 31,
    "authorId": 68,
    "teamId": 4,
    "name": "Facilitator",
    "description": "Voluptas aut quae.",
    "deadline": "2022-03-13T14:26:06.6365661+00:00",
    "createdAt": "2021-08-03T05:56:39.9491591+00:00"
  },
  {
    "id": 32,
    "authorId": 76,
    "teamId": 5,
    "name": "bluetooth",
    "description": "Quaerat molestias ut doloribus similique incidunt.",
    "deadline": "2022-06-09T11:05:30.6723838+00:00",
    "createdAt": "2021-07-15T15:21:02.0037192+00:00"
  },
  {
    "id": 33,
    "authorId": 72,
    "teamId": 5,
    "name": "Investor Bosnia and Herzegovina override",
    "description": "Esse sequi praesentium ducimus est nisi ex assumenda voluptatibus non.",
    "deadline": "2022-04-02T21:18:37.9393416+00:00",
    "createdAt": "2021-04-27T14:13:27.5434026+00:00"
  },
  {
    "id": 34,
    "authorId": 74,
    "teamId": 5,
    "name": "Forge",
    "description": "Excepturi molestiae omnis voluptas.",
    "deadline": "2022-05-29T14:40:03.8779891+00:00",
    "createdAt": "2021-11-03T04:18:48.8732741+00:00"
  },
  {
    "id": 35,
    "authorId": 73,
    "teamId": 5,
    "name": "deposit ADP Cyprus",
    "description": "Deserunt expedita est et neque ab.",
    "deadline": "2022-04-25T20:25:10.2689382+00:00",
    "createdAt": "2021-09-12T22:30:20.0776151+00:00"
  },
  {
    "id": 36,
    "authorId": 72,
    "teamId": 5,
    "name": "Brook",
    "description": "Saepe est et blanditiis ut quis.",
    "deadline": "2022-04-30T10:24:35.7641221+00:00",
    "createdAt": "2021-05-14T13:51:37.1278948+00:00"
  },
  {
    "id": 37,
    "authorId": 77,
    "teamId": 5,
    "name": "deposit",
    "description": "Impedit sit veniam dolores.",
    "deadline": "2022-03-17T04:04:39.8277375+00:00",
    "createdAt": "2021-02-14T06:51:40.1702132+00:00"
  },
  {
    "id": 38,
    "authorId": 79,
    "teamId": 5,
    "name": "input Buckinghamshire Ergonomic",
    "description": "Voluptatem commodi dolorum quia architecto necessitatibus pariatur saepe aliquam in.",
    "deadline": "2022-01-24T19:00:22.3777126+00:00",
    "createdAt": "2021-09-23T06:41:13.4307158+00:00"
  },
  {
    "id": 39,
    "authorId": 76,
    "teamId": 5,
    "name": "Customer",
    "description": "Mollitia delectus nisi.",
    "deadline": "2022-04-22T13:59:58.1272182+00:00",
    "createdAt": "2020-04-05T22:39:26.1054306+00:00"
  },
  {
    "id": 40,
    "authorId": 77,
    "teamId": 5,
    "name": "Steel embrace Baby",
    "description": "Minima distinctio quasi nemo laudantium.",
    "deadline": "2022-04-09T13:51:25.3756747+00:00",
    "createdAt": "2020-01-26T22:21:28.8871435+00:00"
  },
  {
    "id": 41,
    "authorId": 73,
    "teamId": 5,
    "name": "Steel Gorgeous frame",
    "description": "Quo dolorem dignissimos sed sed facere eum vel cum.",
    "deadline": "2022-05-27T07:12:23.6670331+00:00",
    "createdAt": "2021-12-12T07:26:22.419475+00:00"
  },
  {
    "id": 42,
    "authorId": 71,
    "teamId": 5,
    "name": "bus Mobility",
    "description": "Officiis delectus inventore dolorum fugit omnis et expedita atque.",
    "deadline": "2022-03-31T09:03:24.2480591+00:00",
    "createdAt": "2020-04-24T06:43:48.9464308+00:00"
  },
  {
    "id": 43,
    "authorId": 76,
    "teamId": 5,
    "name": "quantifying France",
    "description": "Rerum blanditiis ratione non minima eligendi harum quo odio.",
    "deadline": "2022-06-30T09:00:52.3175513+00:00",
    "createdAt": "2020-05-29T06:12:40.8126801+00:00"
  },
  {
    "id": 44,
    "authorId": 72,
    "teamId": 5,
    "name": "Fantastic",
    "description": "Molestiae in et eius ab saepe.",
    "deadline": "2022-04-28T05:17:56.629945+00:00",
    "createdAt": "2021-02-10T07:13:37.9781766+00:00"
  },
  {
    "id": 45,
    "authorId": 73,
    "teamId": 5,
    "name": "Belgium Intelligent Cotton Chips blockchains",
    "description": "Veniam expedita ut.",
    "deadline": "2022-05-16T08:28:23.8000864+00:00",
    "createdAt": "2021-04-19T17:52:49.0020929+00:00"
  },
  {
    "id": 46,
    "authorId": 79,
    "teamId": 5,
    "name": "Metal copying",
    "description": "Voluptas ut aut in.",
    "deadline": "2022-03-02T00:24:32.6618328+00:00",
    "createdAt": "2020-07-26T15:22:56.1764836+00:00"
  },
  {
    "id": 47,
    "authorId": 71,
    "teamId": 5,
    "name": "Facilitator Fiji Dollar e-business",
    "description": "Omnis tempora natus nulla porro quaerat ab.",
    "deadline": "2022-01-26T03:37:28.1285381+00:00",
    "createdAt": "2020-05-18T21:14:59.3525809+00:00"
  },
  {
    "id": 48,
    "authorId": 71,
    "teamId": 5,
    "name": "Flats invoice Investor",
    "description": "Dolor facere pariatur inventore vel odit ut ut amet illo.",
    "deadline": "2022-03-27T19:37:05.6533286+00:00",
    "createdAt": "2020-02-03T19:58:37.0135351+00:00"
  },
  {
    "id": 49,
    "authorId": 82,
    "teamId": 6,
    "name": "Summit",
    "description": "Sed repellat et repudiandae quo nesciunt minima quia iste ullam.",
    "deadline": "2022-06-14T02:39:11.7583493+00:00",
    "createdAt": "2021-09-14T07:13:31.4350017+00:00"
  },
  {
    "id": 50,
    "authorId": 91,
    "teamId": 7,
    "name": "real-time",
    "description": "Optio quos velit blanditiis laborum consequatur.",
    "deadline": "2022-01-26T00:20:49.2885237+00:00",
    "createdAt": "2020-01-14T19:07:32.5224354+00:00"
  },
  {
    "id": 51,
    "authorId": 90,
    "teamId": 7,
    "name": "Director Seamless solid state",
    "description": "Et exercitationem et eaque eligendi dolor quos omnis recusandae.",
    "deadline": "2022-04-13T00:00:03.5306968+00:00",
    "createdAt": "2021-12-28T09:20:21.1652671+00:00"
  },
  {
    "id": 52,
    "authorId": 91,
    "teamId": 7,
    "name": "Legacy 1080p",
    "description": "Ex rem distinctio iure quaerat quo porro dolores.",
    "deadline": "2022-03-29T12:06:42.3256267+00:00",
    "createdAt": "2021-05-15T00:14:16.9224173+00:00"
  },
  {
    "id": 53,
    "authorId": 88,
    "teamId": 7,
    "name": "Fantastic Plastic Mouse",
    "description": "Eaque soluta vel consequatur quo et.",
    "deadline": "2022-06-24T08:23:43.0616883+00:00",
    "createdAt": "2020-09-04T20:12:27.7631385+00:00"
  },
  {
    "id": 54,
    "authorId": 92,
    "teamId": 8,
    "name": "User-friendly",
    "description": "Sed laudantium quae dignissimos.",
    "deadline": "2022-03-29T20:25:36.3986624+00:00",
    "createdAt": "2021-10-10T19:29:22.5277639+00:00"
  },
  {
    "id": 55,
    "authorId": 94,
    "teamId": 8,
    "name": "Electronics",
    "description": "Nesciunt ut debitis dignissimos expedita.",
    "deadline": "2022-04-16T21:02:30.5735058+00:00",
    "createdAt": "2021-06-25T19:04:47.9660656+00:00"
  },
  {
    "id": 56,
    "authorId": 96,
    "teamId": 8,
    "name": "Cotton alarm Pennsylvania",
    "description": "Reprehenderit repellendus natus minima laudantium explicabo libero mollitia.",
    "deadline": "2022-01-15T04:15:55.3008746+00:00",
    "createdAt": "2020-03-10T22:07:10.6737768+00:00"
  },
  {
    "id": 57,
    "authorId": 100,
    "teamId": 8,
    "name": "Adaptive",
    "description": "Inventore consequatur aliquid voluptas iste et nihil qui.",
    "deadline": "2022-05-06T17:33:37.5134107+00:00",
    "createdAt": "2020-02-25T12:00:37.4173109+00:00"
  },
  {
    "id": 58,
    "authorId": 97,
    "teamId": 8,
    "name": "markets projection",
    "description": "Quis occaecati facilis et omnis repudiandae eveniet veritatis soluta.",
    "deadline": "2022-03-04T11:54:15.9952552+00:00",
    "createdAt": "2021-03-04T14:52:27.4920472+00:00"
  },
  {
    "id": 59,
    "authorId": 99,
    "teamId": 8,
    "name": "Down-sized sensor",
    "description": "Non nostrum repellendus sed voluptates.",
    "deadline": "2022-07-06T04:20:06.3193585+00:00",
    "createdAt": "2021-04-03T08:14:07.3534054+00:00"
  },
  {
    "id": 60,
    "authorId": 101,
    "teamId": 8,
    "name": "Intranet intangible",
    "description": "Sed voluptatem cum impedit ex voluptate exercitationem saepe.",
    "deadline": "2022-04-04T15:12:40.9672399+00:00",
    "createdAt": "2020-08-17T09:27:18.1274699+00:00"
  },
  {
    "id": 61,
    "authorId": 100,
    "teamId": 8,
    "name": "Technician Home, Jewelery & Automotive",
    "description": "Autem excepturi sunt dolorem est cum at fugiat.",
    "deadline": "2022-04-26T01:36:04.2008554+00:00",
    "createdAt": "2020-02-18T01:50:36.526481+00:00"
  },
  {
    "id": 62,
    "authorId": 96,
    "teamId": 8,
    "name": "synthesize Home Loan Account",
    "description": "Molestias ea architecto quae aperiam quo vitae.",
    "deadline": "2022-03-12T07:01:36.2693444+00:00",
    "createdAt": "2021-04-01T15:58:03.3546829+00:00"
  },
  {
    "id": 63,
    "authorId": 101,
    "teamId": 8,
    "name": "Investor invoice impactful",
    "description": "Est non molestias aspernatur soluta.",
    "deadline": "2022-04-22T20:49:23.9063546+00:00",
    "createdAt": "2021-02-10T08:42:21.1177608+00:00"
  },
  {
    "id": 64,
    "authorId": 95,
    "teamId": 8,
    "name": "Multi-lateral compress",
    "description": "Qui sequi autem.",
    "deadline": "2022-04-02T23:21:25.9433903+00:00",
    "createdAt": "2020-05-06T01:05:20.1822001+00:00"
  },
  {
    "id": 65,
    "authorId": 98,
    "teamId": 8,
    "name": "deposit overriding",
    "description": "Consequuntur repudiandae earum corporis porro et a reprehenderit.",
    "deadline": "2022-01-14T00:29:22.588079+00:00",
    "createdAt": "2020-09-04T05:33:51.7879288+00:00"
  },
  {
    "id": 66,
    "authorId": 92,
    "teamId": 8,
    "name": "Malagasy Ariary Road",
    "description": "Et eos et nihil nobis.",
    "deadline": "2022-04-17T12:39:25.6991013+00:00",
    "createdAt": "2021-01-29T17:13:56.584705+00:00"
  },
  {
    "id": 67,
    "authorId": 100,
    "teamId": 8,
    "name": "Bouvet Island (Bouvetoya)",
    "description": "Recusandae molestiae nam aut reiciendis et unde autem sed et.",
    "deadline": "2022-03-25T11:43:50.4720183+00:00",
    "createdAt": "2020-06-02T15:38:07.3960615+00:00"
  },
  {
    "id": 68,
    "authorId": 100,
    "teamId": 8,
    "name": "bandwidth",
    "description": "Voluptas voluptas aspernatur et nisi qui.",
    "deadline": "2022-07-08T03:09:14.841656+00:00",
    "createdAt": "2020-11-07T19:05:59.9412585+00:00"
  },
  {
    "id": 69,
    "authorId": 101,
    "teamId": 8,
    "name": "grow Junctions",
    "description": "Voluptas ea architecto facere eum non cumque.",
    "deadline": "2022-01-28T04:35:33.6833037+00:00",
    "createdAt": "2021-12-16T12:36:24.1439306+00:00"
  },
  {
    "id": 70,
    "authorId": 95,
    "teamId": 8,
    "name": "brand",
    "description": "Dolorem est consequatur quis totam natus dolor sit ea.",
    "deadline": "2022-04-29T04:51:16.6507602+00:00",
    "createdAt": "2020-06-19T03:00:23.8788763+00:00"
  },
  {
    "id": 71,
    "authorId": 98,
    "teamId": 8,
    "name": "Strategist",
    "description": "Voluptates placeat aut voluptas.",
    "deadline": "2022-07-05T12:45:57.462343+00:00",
    "createdAt": "2021-01-28T03:00:54.1313051+00:00"
  },
  {
    "id": 72,
    "authorId": 113,
    "teamId": 9,
    "name": "bypassing Balanced conglomeration",
    "description": "Sint voluptas ipsum autem in aspernatur voluptatibus eum vel.",
    "deadline": "2022-06-09T08:23:11.4984586+00:00",
    "createdAt": "2021-12-12T14:52:48.6675873+00:00"
  },
  {
    "id": 73,
    "authorId": 107,
    "teamId": 9,
    "name": "Egyptian Pound bandwidth ADP",
    "description": "Aliquam fuga vero nisi soluta nulla.",
    "deadline": "2022-05-09T04:06:19.4821602+00:00",
    "createdAt": "2020-10-22T15:09:53.9421037+00:00"
  },
  {
    "id": 74,
    "authorId": 107,
    "teamId": 9,
    "name": "Brand implement Sleek Soft Mouse",
    "description": "Vel voluptas minima praesentium ratione iusto atque.",
    "deadline": "2022-07-10T13:46:53.5208067+00:00",
    "createdAt": "2021-12-26T14:38:58.1825567+00:00"
  },
  {
    "id": 75,
    "authorId": 109,
    "teamId": 9,
    "name": "Intelligent Fresh Bacon Togo",
    "description": "Dolorem aut minus qui quis laboriosam odio eos aut aut.",
    "deadline": "2022-07-05T01:42:34.0693391+00:00",
    "createdAt": "2020-12-20T03:01:23.805345+00:00"
  },
  {
    "id": 76,
    "authorId": 110,
    "teamId": 9,
    "name": "Product Home Loan Account Officer",
    "description": "Voluptates velit pariatur fuga asperiores qui autem est.",
    "deadline": "2022-02-18T15:11:53.197629+00:00",
    "createdAt": "2020-12-09T17:12:45.5436106+00:00"
  },
  {
    "id": 77,
    "authorId": 107,
    "teamId": 9,
    "name": "Personal Loan Account",
    "description": "At ea qui.",
    "deadline": "2022-07-01T10:23:16.0398577+00:00",
    "createdAt": "2021-12-30T04:45:45.2339387+00:00"
  },
  {
    "id": 78,
    "authorId": 105,
    "teamId": 9,
    "name": "utilize Cambridgeshire",
    "description": "Et eveniet dolore eius unde qui.",
    "deadline": "2022-02-17T06:50:10.2760991+00:00",
    "createdAt": "2020-03-13T05:47:42.9343637+00:00"
  },
  {
    "id": 79,
    "authorId": 112,
    "teamId": 9,
    "name": "navigating olive Licensed",
    "description": "Deleniti aliquam aspernatur et illum et aliquam.",
    "deadline": "2022-02-21T12:55:19.993208+00:00",
    "createdAt": "2021-12-22T02:03:38.2374266+00:00"
  },
  {
    "id": 80,
    "authorId": 103,
    "teamId": 9,
    "name": "Stravenue back-end",
    "description": "Cumque unde debitis.",
    "deadline": "2022-07-04T02:35:38.3372597+00:00",
    "createdAt": "2021-05-17T17:59:20.615201+00:00"
  },
  {
    "id": 81,
    "authorId": 113,
    "teamId": 9,
    "name": "markets Tasty Granite Chair",
    "description": "Quis velit eligendi dolorem omnis ut aut cupiditate.",
    "deadline": "2022-03-31T00:12:57.9155982+00:00",
    "createdAt": "2021-02-06T05:15:58.8453574+00:00"
  },
  {
    "id": 82,
    "authorId": 113,
    "teamId": 9,
    "name": "Monaco connect Ergonomic",
    "description": "Nostrum quos explicabo non consequatur tempora perspiciatis impedit.",
    "deadline": "2022-05-15T08:29:40.4256911+00:00",
    "createdAt": "2020-04-28T16:05:28.1876084+00:00"
  },
  {
    "id": 83,
    "authorId": 109,
    "teamId": 9,
    "name": "microchip reciprocal",
    "description": "Facere doloribus ut eveniet.",
    "deadline": "2022-03-04T06:58:39.5558601+00:00",
    "createdAt": "2021-09-04T16:31:36.6204697+00:00"
  },
  {
    "id": 84,
    "authorId": 103,
    "teamId": 9,
    "name": "Director methodologies",
    "description": "Mollitia architecto repudiandae quo est aliquam ad doloribus.",
    "deadline": "2022-06-20T12:21:26.1458411+00:00",
    "createdAt": "2020-11-02T05:42:41.1903059+00:00"
  },
  {
    "id": 85,
    "authorId": 102,
    "teamId": 9,
    "name": "Metal back up",
    "description": "Temporibus labore consequatur perspiciatis quo.",
    "deadline": "2022-01-31T18:52:13.7056645+00:00",
    "createdAt": "2020-06-12T05:57:01.0684916+00:00"
  },
  {
    "id": 86,
    "authorId": 111,
    "teamId": 9,
    "name": "utilisation",
    "description": "Nulla eveniet magni maxime aperiam aliquam sunt perspiciatis aut.",
    "deadline": "2022-04-09T17:11:43.9449352+00:00",
    "createdAt": "2021-12-25T22:26:35.8171672+00:00"
  },
  {
    "id": 87,
    "authorId": 107,
    "teamId": 9,
    "name": "AI",
    "description": "Quis sequi molestias suscipit ea.",
    "deadline": "2022-05-17T19:23:35.0247083+00:00",
    "createdAt": "2020-12-12T04:28:16.362164+00:00"
  },
  {
    "id": 88,
    "authorId": 104,
    "teamId": 9,
    "name": "Unbranded",
    "description": "Sed ipsa quo earum ullam adipisci eaque cumque debitis omnis.",
    "deadline": "2022-01-28T20:22:29.6168146+00:00",
    "createdAt": "2021-03-16T15:21:27.8092428+00:00"
  },
  {
    "id": 89,
    "authorId": 104,
    "teamId": 9,
    "name": "envisioneer Fully-configurable",
    "description": "Voluptas quo provident molestiae at.",
    "deadline": "2022-06-06T20:45:20.7233281+00:00",
    "createdAt": "2020-10-02T01:55:34.5461729+00:00"
  },
  {
    "id": 90,
    "authorId": 106,
    "teamId": 9,
    "name": "compelling",
    "description": "Recusandae quis id nihil voluptas assumenda vitae.",
    "deadline": "2022-02-17T02:59:05.6803694+00:00",
    "createdAt": "2021-12-12T19:11:11.6070436+00:00"
  },
  {
    "id": 91,
    "authorId": 112,
    "teamId": 9,
    "name": "engage Ergonomic Wooden Sausages core",
    "description": "Voluptas temporibus ipsa aliquam officia laborum vero dolores distinctio quibusdam.",
    "deadline": "2022-06-21T08:27:41.7509593+00:00",
    "createdAt": "2021-05-03T23:14:55.4208423+00:00"
  }
]